GROUP = L1_METADATA_FILE
  GROUP = METADATA_FILE_INFO
    ORIGIN = "Image courtesy of the U.S. Geological Survey"
    REQUEST_ID = "0501306021498_00001"
    LANDSAT_SCENE_ID = "LC80850132013153LGN00"
    FILE_DATE = 2013-06-03T17:35:07Z
    STATION_ID = "LGN"
    PROCESSING_SOFTWARE_VERSION = "LPGS_2.2.2"
  END_GROUP = METADATA_FILE_INFO
  GROUP = PRODUCT_METADATA
    DATA_TYPE = "L1T"
    ELEVATION_SOURCE = "GLS2000"
    OUTPUT_FORMAT = "GEOTIFF"
    SPACECRAFT_ID = "LANDSAT_8"
    SENSOR_ID = "OLI_TIRS"
    WRS_PATH = 85
    WRS_ROW = 13
    NADIR_OFFNADIR = "NADIR"
    TARGET_WRS_PATH = 85
    TARGET_WRS_ROW = 13
    DATE_ACQUIRED = 2013-06-02
    SCENE_CENTER_TIME = 22:53:09.4515460Z
    CORNER_UL_LAT_PRODUCT = 68.01081
    CORNER_UL_LON_PRODUCT = -172.90762
    CORNER_UR_LAT_PRODUCT = 67.97333
    CORNER_UR_LON_PRODUCT = -167.00273
    CORNER_LL_LAT_PRODUCT = 65.84553
    CORNER_LL_LON_PRODUCT = -172.74565
    CORNER_LR_LAT_PRODUCT = 65.81176
    CORNER_LR_LON_PRODUCT = -167.34137
    CORNER_UL_PROJECTION_X_PRODUCT = 420300.000
    CORNER_UL_PROJECTION_Y_PRODUCT = 7545300.000
    CORNER_UR_PROJECTION_X_PRODUCT = 667200.000
    CORNER_UR_PROJECTION_Y_PRODUCT = 7545300.000
    CORNER_LL_PROJECTION_X_PRODUCT = 420300.000
    CORNER_LL_PROJECTION_Y_PRODUCT = 7303800.000
    CORNER_LR_PROJECTION_X_PRODUCT = 667200.000
    CORNER_LR_PROJECTION_Y_PRODUCT = 7303800.000
    PANCHROMATIC_LINES = 16101
    PANCHROMATIC_SAMPLES = 16461
    REFLECTIVE_LINES = 8051
    REFLECTIVE_SAMPLES = 8231
    THERMAL_LINES = 8051
    THERMAL_SAMPLES = 8231
    FILE_NAME_BAND_1 = "LC80850132013153LGN00_B1.TIF"
    FILE_NAME_BAND_2 = "LC80850132013153LGN00_B2.TIF"
    FILE_NAME_BAND_3 = "LC80850132013153LGN00_B3.TIF"
    FILE_NAME_BAND_4 = "LC80850132013153LGN00_B4.TIF"
    FILE_NAME_BAND_5 = "LC80850132013153LGN00_B5.TIF"
    FILE_NAME_BAND_6 = "LC80850132013153LGN00_B6.TIF"
    FILE_NAME_BAND_7 = "LC80850132013153LGN00_B7.TIF"
    FILE_NAME_BAND_8 = "LC80850132013153LGN00_B8.TIF"
    FILE_NAME_BAND_9 = "LC80850132013153LGN00_B9.TIF"
    FILE_NAME_BAND_10 = "LC80850132013153LGN00_B10.TIF"
    FILE_NAME_BAND_11 = "LC80850132013153LGN00_B11.TIF"
    FILE_NAME_BAND_QUALITY = "LC80850132013153LGN00_BQA.TIF"
    METADATA_FILE_NAME = "LC80850132013153LGN00_MTL.txt"
    BPF_NAME_OLI = "LO8BPF20130602225213_20130602225826.01"
    BPF_NAME_TIRS = "LT8BPF20130602224820_20130602225918.01"
    CPF_NAME = "L8CPF20130401_20130630.04"
    RLUT_FILE_NAME = "L8RLUT20130211_20431231v06.h5"
  END_GROUP = PRODUCT_METADATA
  GROUP = IMAGE_ATTRIBUTES
    CLOUD_COVER = 3.39
    IMAGE_QUALITY_OLI = 9
    IMAGE_QUALITY_TIRS = 9
    ROLL_ANGLE = -0.001
    SUN_AZIMUTH = 171.79409435
    SUN_ELEVATION = 45.32103792
    EARTH_SUN_DISTANCE = 1.0143065
    GROUND_CONTROL_POINTS_MODEL = 109
    GEOMETRIC_RMSE_MODEL = 10.836
    GEOMETRIC_RMSE_MODEL_Y = 7.593
    GEOMETRIC_RMSE_MODEL_X = 7.731
    GROUND_CONTROL_POINTS_VERIFY = 33
    GEOMETRIC_RMSE_VERIFY = 6.912
  END_GROUP = IMAGE_ATTRIBUTES
  GROUP = MIN_MAX_RADIANCE
    RADIANCE_MAXIMUM_BAND_1 = 759.21796
    RADIANCE_MINIMUM_BAND_1 = -62.69646
    RADIANCE_MAXIMUM_BAND_2 = 774.20251
    RADIANCE_MINIMUM_BAND_2 = -63.93390
    RADIANCE_MAXIMUM_BAND_3 = 708.90833
    RADIANCE_MINIMUM_BAND_3 = -58.54188
    RADIANCE_MAXIMUM_BAND_4 = 600.40192
    RADIANCE_MINIMUM_BAND_4 = -49.58139
    RADIANCE_MAXIMUM_BAND_5 = 364.33060
    RADIANCE_MINIMUM_BAND_5 = -30.08654
    RADIANCE_MAXIMUM_BAND_6 = 91.79312
    RADIANCE_MINIMUM_BAND_6 = -7.58031
    RADIANCE_MAXIMUM_BAND_7 = 29.86013
    RADIANCE_MINIMUM_BAND_7 = -2.46586
    RADIANCE_MAXIMUM_BAND_8 = 676.31482
    RADIANCE_MINIMUM_BAND_8 = -55.85030
    RADIANCE_MAXIMUM_BAND_9 = 149.71855
    RADIANCE_MINIMUM_BAND_9 = -12.36381
    RADIANCE_MAXIMUM_BAND_10 = 22.00180
    RADIANCE_MINIMUM_BAND_10 = 0.10033
    RADIANCE_MAXIMUM_BAND_11 = 22.00180
    RADIANCE_MINIMUM_BAND_11 = 0.10033
  END_GROUP = MIN_MAX_RADIANCE
  GROUP = MIN_MAX_REFLECTANCE
    REFLECTANCE_MAXIMUM_BAND_1 = 1.210700
    REFLECTANCE_MINIMUM_BAND_1 = -0.099980
    REFLECTANCE_MAXIMUM_BAND_2 = 1.210700
    REFLECTANCE_MINIMUM_BAND_2 = -0.099980
    REFLECTANCE_MAXIMUM_BAND_3 = 1.210700
    REFLECTANCE_MINIMUM_BAND_3 = -0.099980
    REFLECTANCE_MAXIMUM_BAND_4 = 1.210700
    REFLECTANCE_MINIMUM_BAND_4 = -0.099980
    REFLECTANCE_MAXIMUM_BAND_5 = 1.210700
    REFLECTANCE_MINIMUM_BAND_5 = -0.099980
    REFLECTANCE_MAXIMUM_BAND_6 = 1.210700
    REFLECTANCE_MINIMUM_BAND_6 = -0.099980
    REFLECTANCE_MAXIMUM_BAND_7 = 1.210700
    REFLECTANCE_MINIMUM_BAND_7 = -0.099980
    REFLECTANCE_MAXIMUM_BAND_8 = 1.210700
    REFLECTANCE_MINIMUM_BAND_8 = -0.099980
    REFLECTANCE_MAXIMUM_BAND_9 = 1.210700
    REFLECTANCE_MINIMUM_BAND_9 = -0.099980
  END_GROUP = MIN_MAX_REFLECTANCE
  GROUP = MIN_MAX_PIXEL_VALUE
    QUANTIZE_CAL_MAX_BAND_1 = 65535
    QUANTIZE_CAL_MIN_BAND_1 = 1
    QUANTIZE_CAL_MAX_BAND_2 = 65535
    QUANTIZE_CAL_MIN_BAND_2 = 1
    QUANTIZE_CAL_MAX_BAND_3 = 65535
    QUANTIZE_CAL_MIN_BAND_3 = 1
    QUANTIZE_CAL_MAX_BAND_4 = 65535
    QUANTIZE_CAL_MIN_BAND_4 = 1
    QUANTIZE_CAL_MAX_BAND_5 = 65535
    QUANTIZE_CAL_MIN_BAND_5 = 1
    QUANTIZE_CAL_MAX_BAND_6 = 65535
    QUANTIZE_CAL_MIN_BAND_6 = 1
    QUANTIZE_CAL_MAX_BAND_7 = 65535
    QUANTIZE_CAL_MIN_BAND_7 = 1
    QUANTIZE_CAL_MAX_BAND_8 = 65535
    QUANTIZE_CAL_MIN_BAND_8 = 1
    QUANTIZE_CAL_MAX_BAND_9 = 65535
    QUANTIZE_CAL_MIN_BAND_9 = 1
    QUANTIZE_CAL_MAX_BAND_10 = 65535
    QUANTIZE_CAL_MIN_BAND_10 = 1
    QUANTIZE_CAL_MAX_BAND_11 = 65535
    QUANTIZE_CAL_MIN_BAND_11 = 1
  END_GROUP = MIN_MAX_PIXEL_VALUE
  GROUP = RADIOMETRIC_RESCALING
    RADIANCE_MULT_BAND_1 = 1.2542E-02
    RADIANCE_MULT_BAND_2 = 1.2789E-02
    RADIANCE_MULT_BAND_3 = 1.1711E-02
    RADIANCE_MULT_BAND_4 = 9.9183E-03
    RADIANCE_MULT_BAND_5 = 6.0185E-03
    RADIANCE_MULT_BAND_6 = 1.5164E-03
    RADIANCE_MULT_BAND_7 = 4.9327E-04
    RADIANCE_MULT_BAND_8 = 1.1172E-02
    RADIANCE_MULT_BAND_9 = 2.4733E-03
    RADIANCE_MULT_BAND_10 = 3.3420E-04
    RADIANCE_MULT_BAND_11 = 3.3420E-04
    RADIANCE_ADD_BAND_1 = -62.70901
    RADIANCE_ADD_BAND_2 = -63.94668
    RADIANCE_ADD_BAND_3 = -58.55359
    RADIANCE_ADD_BAND_4 = -49.59131
    RADIANCE_ADD_BAND_5 = -30.09256
    RADIANCE_ADD_BAND_6 = -7.58182
    RADIANCE_ADD_BAND_7 = -2.46635
    RADIANCE_ADD_BAND_8 = -55.86147
    RADIANCE_ADD_BAND_9 = -12.36628
    RADIANCE_ADD_BAND_10 = 0.10000
    RADIANCE_ADD_BAND_11 = 0.10000
    REFLECTANCE_MULT_BAND_1 = 2.0000E-05
    REFLECTANCE_MULT_BAND_2 = 2.0000E-05
    REFLECTANCE_MULT_BAND_3 = 2.0000E-05
    REFLECTANCE_MULT_BAND_4 = 2.0000E-05
    REFLECTANCE_MULT_BAND_5 = 2.0000E-05
    REFLECTANCE_MULT_BAND_6 = 2.0000E-05
    REFLECTANCE_MULT_BAND_7 = 2.0000E-05
    REFLECTANCE_MULT_BAND_8 = 2.0000E-05
    REFLECTANCE_MULT_BAND_9 = 2.0000E-05
    REFLECTANCE_ADD_BAND_1 = -0.100000
    REFLECTANCE_ADD_BAND_2 = -0.100000
    REFLECTANCE_ADD_BAND_3 = -0.100000
    REFLECTANCE_ADD_BAND_4 = -0.100000
    REFLECTANCE_ADD_BAND_5 = -0.100000
    REFLECTANCE_ADD_BAND_6 = -0.100000
    REFLECTANCE_ADD_BAND_7 = -0.100000
    REFLECTANCE_ADD_BAND_8 = -0.100000
    REFLECTANCE_ADD_BAND_9 = -0.100000
  END_GROUP = RADIOMETRIC_RESCALING
  GROUP = TIRS_THERMAL_CONSTANTS
    K1_CONSTANT_BAND_10 = 774.89
    K1_CONSTANT_BAND_11 = 480.89
    K2_CONSTANT_BAND_10 = 1321.08
    K2_CONSTANT_BAND_11 = 1201.14
  END_GROUP = TIRS_THERMAL_CONSTANTS
  GROUP = PROJECTION_PARAMETERS
    MAP_PROJECTION = "UTM"
    DATUM = "WGS84"
    ELLIPSOID = "WGS84"
    UTM_ZONE = 2
    GRID_CELL_SIZE_PANCHROMATIC = 15.00
    GRID_CELL_SIZE_REFLECTIVE = 30.00
    GRID_CELL_SIZE_THERMAL = 30.00
    ORIENTATION = "NORTH_UP"
    RESAMPLING_OPTION = "CUBIC_CONVOLUTION"
  END_GROUP = PROJECTION_PARAMETERS
END_GROUP = L1_METADATA_FILE
END



